computer-architecture/MIPS/dump.vcd
$date
	Wed Jan  4 19:31:44 2023
$end
$version
	Icarus Verilog
$end
$timescale
	1s
$end
$scope module cpu_test $end
$var wire 32 ! pc [31:0] $end
$var wire 32 " pc_new [31:0] $end
$var wire 1 # register_we3 $end
$var wire 32 $ register_wd3 [31:0] $end
$var wire 32 % register_rd2 [31:0] $end
$var wire 32 & register_rd1 [31:0] $end
$var wire 5 ' register_a3 [4:0] $end
$var wire 5 ( register_a2 [4:0] $end
$var wire 5 ) register_a1 [4:0] $end
$var wire 32 * instruction_memory_rd [31:0] $end
$var wire 32 + instruction_memory_a [31:0] $end
$var wire 1 , data_memory_we $end
$var wire 32 - data_memory_wd [31:0] $end
$var wire 32 . data_memory_rd [31:0] $end
$var wire 32 / data_memory_a [31:0] $end
$var reg 1 0 clk $end
$var reg 32 1 i_counter [31:0] $end
$var reg 32 2 mem_counter [31:0] $end
$var reg 32 3 reg_counter [31:0] $end
$scope module cpu $end
$var wire 1 0 clk $end
$var wire 32 4 data_memory_a [31:0] $end
$var wire 32 5 data_memory_wd [31:0] $end
$var wire 32 6 instruction_memory_a [31:0] $end
$var wire 1 7 memwrite $end
$var wire 32 8 pc_new [31:0] $end
$var wire 32 9 register_wd3 [31:0] $end
$var wire 1 : regwrite $end
$var wire 1 ; src $end
$var wire 1 < zero $end
$var wire 32 = tmp [31:0] $end
$var wire 32 > shl_out [31:0] $end
$var wire 32 ? result [31:0] $end
$var wire 1 # register_we3 $end
$var wire 32 @ register_rd2 [31:0] $end
$var wire 32 A register_rd1 [31:0] $end
$var wire 5 B register_a3 [4:0] $end
$var wire 5 C register_a2 [4:0] $end
$var wire 5 D register_a1 [4:0] $end
$var wire 1 E regdst $end
$var wire 1 F memtoreg $end
$var wire 32 G instruction_memory_rd [31:0] $end
$var wire 32 H imm [31:0] $end
$var wire 1 , data_memory_we $end
$var wire 32 I data_memory_rd [31:0] $end
$var wire 3 J control [2:0] $end
$var wire 1 K branch $end
$var wire 32 L b [31:0] $end
$var wire 1 M alusrc $end
$var wire 32 N alu_ans [31:0] $end
$var wire 32 O PC_branch [31:0] $end
$var wire 32 P PC4 [31:0] $end
$var reg 32 Q pc [31:0] $end
$scope module PC $end
$var wire 1 ; a $end
$var wire 32 R out [31:0] $end
$var wire 32 S d1 [31:0] $end
$var wire 32 T d0 [31:0] $end
$upscope $end
$scope module answer $end
$var wire 3 U control [2:0] $end
$var wire 32 V b [31:0] $end
$var wire 32 W a [31:0] $end
$var reg 32 X result [31:0] $end
$var reg 1 < zero $end
$upscope $end
$scope module cont $end
$var wire 6 Y funct [5:0] $end
$var wire 6 Z opcode [5:0] $end
$var reg 1 M alusrc $end
$var reg 1 K branch $end
$var reg 3 [ control [2:0] $end
$var reg 1 F memtoreg $end
$var reg 1 , memwrite $end
$var reg 2 \ op [1:0] $end
$var reg 1 E regdst $end
$var reg 1 # regwrite $end
$upscope $end
$scope module data $end
$var wire 1 F a $end
$var wire 32 ] d0 [31:0] $end
$var wire 32 ^ out [31:0] $end
$var wire 32 _ d1 [31:0] $end
$upscope $end
$scope module ext $end
$var wire 16 ` in [15:0] $end
$var wire 32 a out [31:0] $end
$upscope $end
$scope module ext_s $end
$var wire 32 b in [31:0] $end
$var wire 32 c out [31:0] $end
$upscope $end
$scope module mx $end
$var wire 1 M a $end
$var wire 32 d d1 [31:0] $end
$var wire 32 e out [31:0] $end
$var wire 32 f d0 [31:0] $end
$upscope $end
$scope module mx_3 $end
$var wire 1 E a $end
$var wire 5 g d0 [4:0] $end
$var wire 5 h d1 [4:0] $end
$var wire 5 i out [4:0] $end
$upscope $end
$scope module my_add $end
$var wire 32 j a [31:0] $end
$var wire 32 k b [31:0] $end
$var wire 32 l out [31:0] $end
$upscope $end
$scope module my_add_ $end
$var wire 32 m a [31:0] $end
$var wire 32 n b [31:0] $end
$var wire 32 o out [31:0] $end
$upscope $end
$upscope $end
$scope module cpu_data_memory $end
$var wire 32 p a [31:0] $end
$var wire 1 0 clk $end
$var wire 32 q rd [31:0] $end
$var wire 32 r wd [31:0] $end
$var wire 1 , we $end
$var integer 32 s i [31:0] $end
$upscope $end
$scope module cpu_instruction_memory $end
$var wire 32 t a [31:0] $end
$var wire 32 u rd [31:0] $end
$upscope $end
$scope module cpu_register $end
$var wire 5 v a1 [4:0] $end
$var wire 5 w a2 [4:0] $end
$var wire 5 x a3 [4:0] $end
$var wire 1 0 clk $end
$var wire 32 y rd1 [31:0] $end
$var wire 32 z rd2 [31:0] $end
$var wire 32 { wd3 [31:0] $end
$var wire 1 # we3 $end
$var integer 32 | i [31:0] $end
$upscope $end
$scope module program_counter $end
$var wire 1 0 clk $end
$var wire 32 } d [31:0] $end
$var reg 32 ~ q [31:0] $end
$upscope $end
$upscope $end
$enddefinitions $end
#0
$dumpvars
b0 ~
bz }
b100000 |
b111 {
b0 z
b0 y
b10000 x
b10000 w
b0 v
b100000000100000000000000000111 u
b0 t
b100000000000 s
b0 r
b0 q
b111 p
b100000 o
b100 n
b11100 m
b100 l
b100 k
b0 j
b10000 i
b0 h
b10000 g
b0 f
b111 e
b111 d
b11100 c
b111 b
b111 a
b111 `
b0 _
b111 ^
b111 ]
b0 \
b10 [
b1000 Z
b111 Y
b111 X
b0 W
b111 V
b10 U
b100 T
b100000 S
b100 R
b0 Q
b100 P
b100000 O
b111 N
1M
b111 L
0K
b10 J
b0 I
b111 H
b100000000100000000000000000111 G
0F
0E
b0 D
b10000 C
b10000 B
b0 A
b0 @
b111 ?
b11100 >
b100 =
0<
0;
z:
b111 9
bz 8
z7
b0 6
b0 5
b111 4
bx 3
bx 2
b0 1
x0
b111 /
b0 .
b0 -
0,
b0 +
b100000000100000000000000000111 *
b0 )
b10000 (
b10000 '
b0 &
b0 %
b111 $
1#
bz "
b0 !
$end
#5
bz ~
0<
b1000 $
b1000 9
b1000 {
b1000 ?
b1000 ^
b10001 '
b10001 B
b10001 i
b10001 x
b100000 >
b100000 c
b100000 m
b1000 L
b1000 V
b1000 e
b0 .
b0 I
b0 _
b0 q
b1000 /
b1000 4
b1000 p
b1000 N
b1000 X
b1000 ]
b0 h
b10001 g
b1000 H
b1000 a
b1000 b
b1000 d
b1000 `
b1000 Y
b1000 Z
b10001 (
b10001 C
b10001 w
b0 &
b0 A
b0 W
b0 y
b0 )
b0 D
b0 v
b1000 =
b1000 R
b0 -
b0 5
b0 r
b0 %
b0 @
b0 f
b0 z
b100000000100010000000000001000 *
b100000000100010000000000001000 G
b100000000100010000000000001000 u
b100 +
b100 6
b100 t
b101000 O
b101000 S
b101000 o
b1000 P
b1000 T
b1000 l
b1000 n
b100 !
b100 j
b100 Q
10
#10
b1 1
00
#15
b1111 $
b1111 9
b1111 {
b1111 ?
b1111 ^
b10010 '
b10010 B
b10010 i
b10010 x
b11111111111111100100000010000000 >
b11111111111111100100000010000000 c
b11111111111111100100000010000000 m
b111 L
b111 V
b111 e
b10 \
0M
1E
b1111 /
b1111 4
b1111 p
b1111 N
b1111 X
b1111 ]
b10010 h
b10000 g
b11111111111111111001000000100000 H
b11111111111111111001000000100000 a
b11111111111111111001000000100000 b
b11111111111111111001000000100000 d
b1001000000100000 `
b100000 Y
b0 Z
b10000 (
b10000 C
b10000 w
b1000 &
b1000 A
b1000 W
b1000 y
b10001 )
b10001 D
b10001 v
b1100 =
b1100 R
b10001100001001000000100000 *
b10001100001001000000100000 G
b10001100001001000000100000 u
b1000 +
b1000 6
b1000 t
b11111111111111100100000010001100 O
b11111111111111100100000010001100 S
b11111111111111100100000010001100 o
b1100 P
b1100 T
b1100 l
b1100 n
b1000 !
b1000 j
b1000 Q
b111 -
b111 5
b111 r
b111 %
b111 @
b111 f
b111 z
10
#20
b10 1
00
#25
b1 $
b1 9
b1 {
b1 ?
b1 ^
b1 /
b1 4
b1 p
b1 N
b1 X
b1 ]
b10011 '
b10011 B
b10011 i
b10011 x
b11111111111111100110000010001000 >
b11111111111111100110000010001000 c
b11111111111111100110000010001000 m
b110 J
b110 U
b110 [
b10011 h
b11111111111111111001100000100010 H
b11111111111111111001100000100010 a
b11111111111111111001100000100010 b
b11111111111111111001100000100010 d
b1001100000100010 `
b100010 Y
b10000 =
b10000 R
b10001100001001100000100010 *
b10001100001001100000100010 G
b10001100001001100000100010 u
b1100 +
b1100 6
b1100 t
b11111111111111100110000010011000 O
b11111111111111100110000010011000 S
b11111111111111100110000010011000 o
b10000 P
b10000 T
b10000 l
b10000 n
b1100 !
b1100 j
b1100 Q
10
#30
b11 1
00
#35
1<
b0 $
b0 9
b0 {
b0 ?
b0 ^
b0 /
b0 4
b0 p
b0 N
b0 X
b0 ]
b10100 '
b10100 B
b10100 i
b10100 x
b11111111111111101000000010010000 >
b11111111111111101000000010010000 c
b11111111111111101000000010010000 m
b0 J
b0 U
b0 [
b10100 h
b11111111111111111010000000100100 H
b11111111111111111010000000100100 a
b11111111111111111010000000100100 b
b11111111111111111010000000100100 d
b1010000000100100 `
b100100 Y
b10100 =
b10100 R
b10001100001010000000100100 *
b10001100001010000000100100 G
b10001100001010000000100100 u
b10000 +
b10000 6
b10000 t
b11111111111111101000000010100100 O
b11111111111111101000000010100100 S
b11111111111111101000000010100100 o
b10100 P
b10100 T
b10100 l
b10100 n
b10000 !
b10000 j
b10000 Q
10
#40
b100 1
00
#45
0<
b1111 $
b1111 9
b1111 {
b1111 ?
b1111 ^
b1111 /
b1111 4
b1111 p
b1111 N
b1111 X
b1111 ]
b10101 '
b10101 B
b10101 i
b10101 x
b11111111111111101010000010010100 >
b11111111111111101010000010010100 c
b11111111111111101010000010010100 m
b1 J
b1 U
b1 [
b10101 h
b11111111111111111010100000100101 H
b11111111111111111010100000100101 a
b11111111111111111010100000100101 b
b11111111111111111010100000100101 d
b1010100000100101 `
b100101 Y
b11000 =
b11000 R
b10001100001010100000100101 *
b10001100001010100000100101 G
b10001100001010100000100101 u
b10100 +
b10100 6
b10100 t
b11111111111111101010000010101100 O
b11111111111111101010000010101100 S
b11111111111111101010000010101100 o
b11000 P
b11000 T
b11000 l
b11000 n
b10100 !
b10100 j
b10100 Q
10
#50
b101 1
00
#55
1<
b0 $
b0 9
b0 {
b0 ?
b0 ^
b0 /
b0 4
b0 p
b0 N
b0 X
b0 ]
b10110 '
b10110 B
b10110 i
b10110 x
b11111111111111101100000010101000 >
b11111111111111101100000010101000 c
b11111111111111101100000010101000 m
b111 J
b111 U
b111 [
b10110 h
b11111111111111111011000000101010 H
b11111111111111111011000000101010 a
b11111111111111111011000000101010 b
b11111111111111111011000000101010 d
b1011000000101010 `
b101010 Y
b11100 =
b11100 R
b10001100001011000000101010 *
b10001100001011000000101010 G
b10001100001011000000101010 u
b11000 +
b11000 6
b11000 t
b11111111111111101100000011000100 O
b11111111111111101100000011000100 S
b11111111111111101100000011000100 o
b11100 P
b11100 T
b11100 l
b11100 n
b11000 !
b11000 j
b11000 Q
10
#60
b110 1
00
#65
bx '
bx B
bx i
bx x
bx00 >
bx00 c
bx00 m
bx L
bx V
bx e
bx h
bx g
bx H
bx a
bx b
bx d
bx `
bx Y
bx Z
bx -
bx 5
bx r
bx %
bx @
bx f
bx z
bx (
bx C
bx w
bx &
bx A
bx W
bx y
bx )
bx D
bx v
b100000 =
b100000 R
bx *
bx G
bx u
b11100 +
b11100 6
b11100 t
bx O
bx S
bx o
b100000 P
b100000 T
b100000 l
b100000 n
b11100 !
b11100 j
b11100 Q
10
#70
b111 1
00
#75
b100100 =
b100100 R
b100000 +
b100000 6
b100000 t
b100100 P
b100100 T
b100100 l
b100100 n
b100000 !
b100000 j
b100000 Q
10
#80
b1000 1
00
#85
b101000 =
b101000 R
b100100 +
b100100 6
b100100 t
b101000 P
b101000 T
b101000 l
b101000 n
b100100 !
b100100 j
b100100 Q
10
#90
b1001 1
00
#95
b101100 =
b101100 R
b101000 +
b101000 6
b101000 t
b101100 P
b101100 T
b101100 l
b101100 n
b101000 !
b101000 j
b101000 Q
10
#100
b1010 1
00
#105
b110000 =
b110000 R
b101100 +
b101100 6
b101100 t
b110000 P
b110000 T
b110000 l
b110000 n
b101100 !
b101100 j
b101100 Q
10
#110
b1011 1
00
#115
b110100 =
b110100 R
b110000 +
b110000 6
b110000 t
b110100 P
b110100 T
b110100 l
b110100 n
b110000 !
b110000 j
b110000 Q
10
#120
b1100 1
00
#125
b111000 =
b111000 R
b110100 +
b110100 6
b110100 t
b111000 P
b111000 T
b111000 l
b111000 n
b110100 !
b110100 j
b110100 Q
10
#130
b1101 1
00
#135
b111100 =
b111100 R
b111000 +
b111000 6
b111000 t
b111100 P
b111100 T
b111100 l
b111100 n
b111000 !
b111000 j
b111000 Q
10
#140
b1110 1
00
#145
b1000000 =
b1000000 R
b111100 +
b111100 6
b111100 t
b1000000 P
b1000000 T
b1000000 l
b1000000 n
b111100 !
b111100 j
b111100 Q
10
#150
b1111 1
00
#155
b1000100 =
b1000100 R
b1000000 +
b1000000 6
b1000000 t
b1000100 P
b1000100 T
b1000100 l
b1000100 n
b1000000 !
b1000000 j
b1000000 Q
10
#160
b10000 1
00
#165
b1001000 =
b1001000 R
b1000100 +
b1000100 6
b1000100 t
b1001000 P
b1001000 T
b1001000 l
b1001000 n
b1000100 !
b1000100 j
b1000100 Q
10
#170
b10001 1
00
#175
b1001100 =
b1001100 R
b1001000 +
b1001000 6
b1001000 t
b1001100 P
b1001100 T
b1001100 l
b1001100 n
b1001000 !
b1001000 j
b1001000 Q
10
#180
b10010 1
00
#185
b1010000 =
b1010000 R
b1001100 +
b1001100 6
b1001100 t
b1010000 P
b1010000 T
b1010000 l
b1010000 n
b1001100 !
b1001100 j
b1001100 Q
10
#190
b10011 1
00
#195
b1010100 =
b1010100 R
b1010000 +
b1010000 6
b1010000 t
b1010100 P
b1010100 T
b1010100 l
b1010100 n
b1010000 !
b1010000 j
b1010000 Q
10
#200
b10100 1
00
#205
b1011000 =
b1011000 R
b1010100 +
b1010100 6
b1010100 t
b1011000 P
b1011000 T
b1011000 l
b1011000 n
b1010100 !
b1010100 j
b1010100 Q
10
#210
b10101 1
00
#215
b1011100 =
b1011100 R
b1011000 +
b1011000 6
b1011000 t
b1011100 P
b1011100 T
b1011100 l
b1011100 n
b1011000 !
b1011000 j
b1011000 Q
10
#220
b10110 1
00
#225
b1100000 =
b1100000 R
b1011100 +
b1011100 6
b1011100 t
b1100000 P
b1100000 T
b1100000 l
b1100000 n
b1011100 !
b1011100 j
b1011100 Q
10
#230
b10111 1
00
#235
b1100100 =
b1100100 R
b1100000 +
b1100000 6
b1100000 t
b1100100 P
b1100100 T
b1100100 l
b1100100 n
b1100000 !
b1100000 j
b1100000 Q
10
#240
b11000 1
00
#245
b1101000 =
b1101000 R
b1100100 +
b1100100 6
b1100100 t
b1101000 P
b1101000 T
b1101000 l
b1101000 n
b1100100 !
b1100100 j
b1100100 Q
10
#250
b11001 1
00
#255
b1101100 =
b1101100 R
b1101000 +
b1101000 6
b1101000 t
b1101100 P
b1101100 T
b1101100 l
b1101100 n
b1101000 !
b1101000 j
b1101000 Q
10
#260
b11010 1
00
#265
b1110000 =
b1110000 R
b1101100 +
b1101100 6
b1101100 t
b1110000 P
b1110000 T
b1110000 l
b1110000 n
b1101100 !
b1101100 j
b1101100 Q
10
#270
b11011 1
00
#275
b1110100 =
b1110100 R
b1110000 +
b1110000 6
b1110000 t
b1110100 P
b1110100 T
b1110100 l
b1110100 n
b1110000 !
b1110000 j
b1110000 Q
10
#280
b11100 1
00
#285
b1111000 =
b1111000 R
b1110100 +
b1110100 6
b1110100 t
b1111000 P
b1111000 T
b1111000 l
b1111000 n
b1110100 !
b1110100 j
b1110100 Q
10
#290
b11101 1
00
#295
b1111100 =
b1111100 R
b1111000 +
b1111000 6
b1111000 t
b1111100 P
b1111100 T
b1111100 l
b1111100 n
b1111000 !
b1111000 j
b1111000 Q
10
#300
b11110 1
00
#305
b10000000 =
b10000000 R
b1111100 +
b1111100 6
b1111100 t
b10000000 P
b10000000 T
b10000000 l
b10000000 n
b1111100 !
b1111100 j
b1111100 Q
10
#310
b11111 1
00
#315
b10000100 =
b10000100 R
b10000000 +
b10000000 6
b10000000 t
b10000100 P
b10000100 T
b10000100 l
b10000100 n
b10000000 !
b10000000 j
b10000000 Q
10
#320
b100000 1
00
#325
b10001000 =
b10001000 R
b10000100 +
b10000100 6
b10000100 t
b10001000 P
b10001000 T
b10001000 l
b10001000 n
b10000100 !
b10000100 j
b10000100 Q
10
#330
b100001 1
00
#335
b10001100 =
b10001100 R
b10001000 +
b10001000 6
b10001000 t
b10001100 P
b10001100 T
b10001100 l
b10001100 n
b10001000 !
b10001000 j
b10001000 Q
10
#340
b100010 1
00
#345
b10010000 =
b10010000 R
b10001100 +
b10001100 6
b10001100 t
b10010000 P
b10010000 T
b10010000 l
b10010000 n
b10001100 !
b10001100 j
b10001100 Q
10
#350
b100011 1
00
#355
b10010100 =
b10010100 R
b10010000 +
b10010000 6
b10010000 t
b10010100 P
b10010100 T
b10010100 l
b10010100 n
b10010000 !
b10010000 j
b10010000 Q
10
#360
b100100 1
00
#365
b10011000 =
b10011000 R
b10010100 +
b10010100 6
b10010100 t
b10011000 P
b10011000 T
b10011000 l
b10011000 n
b10010100 !
b10010100 j
b10010100 Q
10
#370
b100101 1
00
#375
b10011100 =
b10011100 R
b10011000 +
b10011000 6
b10011000 t
b10011100 P
b10011100 T
b10011100 l
b10011100 n
b10011000 !
b10011000 j
b10011000 Q
10
#380
b100110 1
00
#385
b10100000 =
b10100000 R
b10011100 +
b10011100 6
b10011100 t
b10100000 P
b10100000 T
b10100000 l
b10100000 n
b10011100 !
b10011100 j
b10011100 Q
10
#390
b100111 1
00
#395
b10100100 =
b10100100 R
b10100000 +
b10100000 6
b10100000 t
b10100100 P
b10100100 T
b10100100 l
b10100100 n
b10100000 !
b10100000 j
b10100000 Q
10
#400
b101000 1
00
#405
b10101000 =
b10101000 R
b10100100 +
b10100100 6
b10100100 t
b10101000 P
b10101000 T
b10101000 l
b10101000 n
b10100100 !
b10100100 j
b10100100 Q
10
#410
b101001 1
00
#415
b10101100 =
b10101100 R
b10101000 +
b10101000 6
b10101000 t
b10101100 P
b10101100 T
b10101100 l
b10101100 n
b10101000 !
b10101000 j
b10101000 Q
10
#420
b101010 1
00
#425
b10110000 =
b10110000 R
b10101100 +
b10101100 6
b10101100 t
b10110000 P
b10110000 T
b10110000 l
b10110000 n
b10101100 !
b10101100 j
b10101100 Q
10
#430
b101011 1
00
#435
b10110100 =
b10110100 R
b10110000 +
b10110000 6
b10110000 t
b10110100 P
b10110100 T
b10110100 l
b10110100 n
b10110000 !
b10110000 j
b10110000 Q
10
#440
b101100 1
00
#445
b10111000 =
b10111000 R
b10110100 +
b10110100 6
b10110100 t
b10111000 P
b10111000 T
b10111000 l
b10111000 n
b10110100 !
b10110100 j
b10110100 Q
10
#450
b101101 1
00
#455
b10111100 =
b10111100 R
b10111000 +
b10111000 6
b10111000 t
b10111100 P
b10111100 T
b10111100 l
b10111100 n
b10111000 !
b10111000 j
b10111000 Q
10
#460
b101110 1
00
#465
b11000000 =
b11000000 R
b10111100 +
b10111100 6
b10111100 t
b11000000 P
b11000000 T
b11000000 l
b11000000 n
b10111100 !
b10111100 j
b10111100 Q
10
#470
b101111 1
00
#475
b11000100 =
b11000100 R
b11000000 +
b11000000 6
b11000000 t
b11000100 P
b11000100 T
b11000100 l
b11000100 n
b11000000 !
b11000000 j
b11000000 Q
10
#480
b110000 1
00
#485
b11001000 =
b11001000 R
b11000100 +
b11000100 6
b11000100 t
b11001000 P
b11001000 T
b11001000 l
b11001000 n
b11000100 !
b11000100 j
b11000100 Q
10
#490
b110001 1
00
#495
b11001100 =
b11001100 R
b11001000 +
b11001000 6
b11001000 t
b11001100 P
b11001100 T
b11001100 l
b11001100 n
b11001000 !
b11001000 j
b11001000 Q
10
#500
b110010 1
00
#505
b11010000 =
b11010000 R
b11001100 +
b11001100 6
b11001100 t
b11010000 P
b11010000 T
b11010000 l
b11010000 n
b11001100 !
b11001100 j
b11001100 Q
10
#510
b110011 1
00
#515
b11010100 =
b11010100 R
b11010000 +
b11010000 6
b11010000 t
b11010100 P
b11010100 T
b11010100 l
b11010100 n
b11010000 !
b11010000 j
b11010000 Q
10
#520
b110100 1
00
#525
b11011000 =
b11011000 R
b11010100 +
b11010100 6
b11010100 t
b11011000 P
b11011000 T
b11011000 l
b11011000 n
b11010100 !
b11010100 j
b11010100 Q
10
#530
b110101 1
00
#535
b11011100 =
b11011100 R
b11011000 +
b11011000 6
b11011000 t
b11011100 P
b11011100 T
b11011100 l
b11011100 n
b11011000 !
b11011000 j
b11011000 Q
10
#540
b110110 1
00
#545
b11100000 =
b11100000 R
b11011100 +
b11011100 6
b11011100 t
b11100000 P
b11100000 T
b11100000 l
b11100000 n
b11011100 !
b11011100 j
b11011100 Q
10
#550
b110111 1
00
#555
b11100100 =
b11100100 R
b11100000 +
b11100000 6
b11100000 t
b11100100 P
b11100100 T
b11100100 l
b11100100 n
b11100000 !
b11100000 j
b11100000 Q
10
#560
b111000 1
00
#565
b11101000 =
b11101000 R
b11100100 +
b11100100 6
b11100100 t
b11101000 P
b11101000 T
b11101000 l
b11101000 n
b11100100 !
b11100100 j
b11100100 Q
10
#570
b111001 1
00
#575
b11101100 =
b11101100 R
b11101000 +
b11101000 6
b11101000 t
b11101100 P
b11101100 T
b11101100 l
b11101100 n
b11101000 !
b11101000 j
b11101000 Q
10
#580
b111010 1
00
#585
b11110000 =
b11110000 R
b11101100 +
b11101100 6
b11101100 t
b11110000 P
b11110000 T
b11110000 l
b11110000 n
b11101100 !
b11101100 j
b11101100 Q
10
#590
b111011 1
00
#595
b11110100 =
b11110100 R
b11110000 +
b11110000 6
b11110000 t
b11110100 P
b11110100 T
b11110100 l
b11110100 n
b11110000 !
b11110000 j
b11110000 Q
10
#600
b111100 1
00
#605
b11111000 =
b11111000 R
b11110100 +
b11110100 6
b11110100 t
b11111000 P
b11111000 T
b11111000 l
b11111000 n
b11110100 !
b11110100 j
b11110100 Q
10
#610
b111101 1
00
#615
b11111100 =
b11111100 R
b11111000 +
b11111000 6
b11111000 t
b11111100 P
b11111100 T
b11111100 l
b11111100 n
b11111000 !
b11111000 j
b11111000 Q
10
#620
b111110 1
00
#625
b100000000 =
b100000000 R
b11111100 +
b11111100 6
b11111100 t
b100000000 P
b100000000 T
b100000000 l
b100000000 n
b11111100 !
b11111100 j
b11111100 Q
10
#630
b111111 1
00
#635
b100000100 =
b100000100 R
b100000000 +
b100000000 6
b100000000 t
b100000100 P
b100000100 T
b100000100 l
b100000100 n
b100000000 !
b100000000 j
b100000000 Q
10
#640
b1000000 1
00
#645
b100001000 =
b100001000 R
b100000100 +
b100000100 6
b100000100 t
b100001000 P
b100001000 T
b100001000 l
b100001000 n
b100000100 !
b100000100 j
b100000100 Q
10
#650
b1000001 1
00
#655
b100001100 =
b100001100 R
b100001000 +
b100001000 6
b100001000 t
b100001100 P
b100001100 T
b100001100 l
b100001100 n
b100001000 !
b100001000 j
b100001000 Q
10
#660
b1000010 1
00
#665
b100010000 =
b100010000 R
b100001100 +
b100001100 6
b100001100 t
b100010000 P
b100010000 T
b100010000 l
b100010000 n
b100001100 !
b100001100 j
b100001100 Q
10
#670
b1000011 1
00
#675
b100010100 =
b100010100 R
b100010000 +
b100010000 6
b100010000 t
b100010100 P
b100010100 T
b100010100 l
b100010100 n
b100010000 !
b100010000 j
b100010000 Q
10
#680
b1000100 1
00
#685
b100011000 =
b100011000 R
b100010100 +
b100010100 6
b100010100 t
b100011000 P
b100011000 T
b100011000 l
b100011000 n
b100010100 !
b100010100 j
b100010100 Q
10
#690
b1000101 1
00
#695
b100011100 =
b100011100 R
b100011000 +
b100011000 6
b100011000 t
b100011100 P
b100011100 T
b100011100 l
b100011100 n
b100011000 !
b100011000 j
b100011000 Q
10
#700
b1000110 1
00
#705
b100100000 =
b100100000 R
b100011100 +
b100011100 6
b100011100 t
b100100000 P
b100100000 T
b100100000 l
b100100000 n
b100011100 !
b100011100 j
b100011100 Q
10
#710
b1000111 1
00
#715
b100100100 =
b100100100 R
b100100000 +
b100100000 6
b100100000 t
b100100100 P
b100100100 T
b100100100 l
b100100100 n
b100100000 !
b100100000 j
b100100000 Q
10
#720
b1001000 1
00
#725
b100101000 =
b100101000 R
b100100100 +
b100100100 6
b100100100 t
b100101000 P
b100101000 T
b100101000 l
b100101000 n
b100100100 !
b100100100 j
b100100100 Q
10
#730
b1001001 1
00
#735
b100101100 =
b100101100 R
b100101000 +
b100101000 6
b100101000 t
b100101100 P
b100101100 T
b100101100 l
b100101100 n
b100101000 !
b100101000 j
b100101000 Q
10
#740
b1001010 1
00
#745
b100110000 =
b100110000 R
b100101100 +
b100101100 6
b100101100 t
b100110000 P
b100110000 T
b100110000 l
b100110000 n
b100101100 !
b100101100 j
b100101100 Q
10
#750
b1001011 1
00
#755
b100110100 =
b100110100 R
b100110000 +
b100110000 6
b100110000 t
b100110100 P
b100110100 T
b100110100 l
b100110100 n
b100110000 !
b100110000 j
b100110000 Q
10
#760
b1001100 1
00
#765
b100111000 =
b100111000 R
b100110100 +
b100110100 6
b100110100 t
b100111000 P
b100111000 T
b100111000 l
b100111000 n
b100110100 !
b100110100 j
b100110100 Q
10
#770
b1001101 1
00
#775
b100111100 =
b100111100 R
b100111000 +
b100111000 6
b100111000 t
b100111100 P
b100111100 T
b100111100 l
b100111100 n
b100111000 !
b100111000 j
b100111000 Q
10
#780
b1001110 1
00
#785
b101000000 =
b101000000 R
b100111100 +
b100111100 6
b100111100 t
b101000000 P
b101000000 T
b101000000 l
b101000000 n
b100111100 !
b100111100 j
b100111100 Q
10
#790
b1001111 1
00
#795
b101000100 =
b101000100 R
b101000000 +
b101000000 6
b101000000 t
b101000100 P
b101000100 T
b101000100 l
b101000100 n
b101000000 !
b101000000 j
b101000000 Q
10
#800
b1010000 1
00
#805
b101001000 =
b101001000 R
b101000100 +
b101000100 6
b101000100 t
b101001000 P
b101001000 T
b101001000 l
b101001000 n
b101000100 !
b101000100 j
b101000100 Q
10
#810
b1010001 1
00
#815
b101001100 =
b101001100 R
b101001000 +
b101001000 6
b101001000 t
b101001100 P
b101001100 T
b101001100 l
b101001100 n
b101001000 !
b101001000 j
b101001000 Q
10
#820
b1010010 1
00
#825
b101010000 =
b101010000 R
b101001100 +
b101001100 6
b101001100 t
b101010000 P
b101010000 T
b101010000 l
b101010000 n
b101001100 !
b101001100 j
b101001100 Q
10
#830
b1010011 1
00
#835
b101010100 =
b101010100 R
b101010000 +
b101010000 6
b101010000 t
b101010100 P
b101010100 T
b101010100 l
b101010100 n
b101010000 !
b101010000 j
b101010000 Q
10
#840
b1010100 1
00
#845
b101011000 =
b101011000 R
b101010100 +
b101010100 6
b101010100 t
b101011000 P
b101011000 T
b101011000 l
b101011000 n
b101010100 !
b101010100 j
b101010100 Q
10
#850
b1010101 1
00
#855
b101011100 =
b101011100 R
b101011000 +
b101011000 6
b101011000 t
b101011100 P
b101011100 T
b101011100 l
b101011100 n
b101011000 !
b101011000 j
b101011000 Q
10
#860
b1010110 1
00
#865
b101100000 =
b101100000 R
b101011100 +
b101011100 6
b101011100 t
b101100000 P
b101100000 T
b101100000 l
b101100000 n
b101011100 !
b101011100 j
b101011100 Q
10
#870
b1010111 1
00
#875
b101100100 =
b101100100 R
b101100000 +
b101100000 6
b101100000 t
b101100100 P
b101100100 T
b101100100 l
b101100100 n
b101100000 !
b101100000 j
b101100000 Q
10
#880
b1011000 1
00
#885
b101101000 =
b101101000 R
b101100100 +
b101100100 6
b101100100 t
b101101000 P
b101101000 T
b101101000 l
b101101000 n
b101100100 !
b101100100 j
b101100100 Q
10
#890
b1011001 1
00
#895
b101101100 =
b101101100 R
b101101000 +
b101101000 6
b101101000 t
b101101100 P
b101101100 T
b101101100 l
b101101100 n
b101101000 !
b101101000 j
b101101000 Q
10
#900
b1011010 1
00
#905
b101110000 =
b101110000 R
b101101100 +
b101101100 6
b101101100 t
b101110000 P
b101110000 T
b101110000 l
b101110000 n
b101101100 !
b101101100 j
b101101100 Q
10
#910
b1011011 1
00
#915
b101110100 =
b101110100 R
b101110000 +
b101110000 6
b101110000 t
b101110100 P
b101110100 T
b101110100 l
b101110100 n
b101110000 !
b101110000 j
b101110000 Q
10
#920
b1011100 1
00
#925
b101111000 =
b101111000 R
b101110100 +
b101110100 6
b101110100 t
b101111000 P
b101111000 T
b101111000 l
b101111000 n
b101110100 !
b101110100 j
b101110100 Q
10
#930
b1011101 1
00
#935
b101111100 =
b101111100 R
b101111000 +
b101111000 6
b101111000 t
b101111100 P
b101111100 T
b101111100 l
b101111100 n
b101111000 !
b101111000 j
b101111000 Q
10
#940
b1011110 1
00
#945
b110000000 =
b110000000 R
b101111100 +
b101111100 6
b101111100 t
b110000000 P
b110000000 T
b110000000 l
b110000000 n
b101111100 !
b101111100 j
b101111100 Q
10
#950
b1011111 1
00
#955
b110000100 =
b110000100 R
b110000000 +
b110000000 6
b110000000 t
b110000100 P
b110000100 T
b110000100 l
b110000100 n
b110000000 !
b110000000 j
b110000000 Q
10
#960
b1100000 1
00
#965
b110001000 =
b110001000 R
b110000100 +
b110000100 6
b110000100 t
b110001000 P
b110001000 T
b110001000 l
b110001000 n
b110000100 !
b110000100 j
b110000100 Q
10
#970
b1100001 1
00
#975
b110001100 =
b110001100 R
b110001000 +
b110001000 6
b110001000 t
b110001100 P
b110001100 T
b110001100 l
b110001100 n
b110001000 !
b110001000 j
b110001000 Q
10
#980
b1100010 1
00
